73,ηκά,1.1,1,0,3,2,0,0,0,0,1,0,-1,3
0,,,,,,,,,,,,
1,sword.wav
ΝΝΙ¨_[Wπ^¦ι,,,,,,,,,,,,
Νs’ηκάΕP’|©Α½,,,,,,,,,,,,
0,-1,3,1,0,2,1,0.82,4,1,1,,
1,0,1,,,,,,,,,,
1,0,1,,,,,,,,,,
